…
Afinn Lexicon: Scoring Sentiment from -5 to 5

Another lexicon used for sentiment analysis is the Afinn database. Its score has a scale of -5 to 5 based off sentiment for each of the 2,476 keywords. Some keywords hold larger weights with a score of five, while some hold a lighter weight of one. This lexicon was developed by a Danish researcher, Finn Arup Nielsen.

#Afinn lexicon
afinn <- tidytext::get_sentiments("afinn")

#Create tibble for AFINN
text_tidy_finn <- text_tidy %>% inner_join(afinn, by = "word") %>% anti_join(stop_words, by = "word") %>% mutate(sentiment=ifelse(score < 0, "negative","positive"))

#Of course we need to check for possible adjustments
head(text_tidy_finn %>% count(word,score, sort = T),100)

## # A tibble: 100 x 3
##    word       score     n
##    <chr>      <int> <int>
##  1 growth         2    22
##  2 trust          1    22
##  3 ability        2    20
##  4 great          3    14
##  5 success        2    12
##  6 innovation     1    11
##  7 amazing        4     9
##  8 strong         2     8
##  9 top            2     8
## 10 vision         1     8
## # … with 90 more rows
…
Using the new total sentiment score, it shows a slightly different narrative than the frequency graph above. In Q1, the analysts were slightly more positive than the management while the scored graph showed a wider difference. In Q4, the analysts were a little more positive than the management but the scored graph shows management having more positive tone in sentiment. This shows that the -5 to 5 scoring scale is effective in scoring some words with a higher weight than others.

NRC Lexicon: Sentiment Emotions

Another form of sentiment analysis can classify the emotion of the speaker by using NRC lexicon. This lexicon scores a distinct emotional class covering Plutchiks Wheel of Emotions. The NRC lexicon, developed by Saif Mohammad and Peter Turney, consists of 13,901 keywords and also includes positive and negative words. Since I’ve already done positive and negative scoring scales words, we will subset this type of scoring out and only analyze the remaining 8,265 key emotion words. Of course, I need to look at the biggest contributors to the score and if it is appropriate for our text.

#NRC lexicon
nrc <- tidytext::get_sentiments("nrc")

nrc_score_tidy <- text_tidy %>% inner_join(nrc, by = "word") %>% anti_join(stop_words, by = "word") 

#Check for possible adjustments
head(nrc_score_tidy %>% count(word,sentiment, sort = T),100)

## # A tibble: 100 x 3
##    word     sentiment        n
##    <chr>    <chr>        <int>
##  1 customer positive        65
##  2 growth   positive        22
##  3 system   trust           22
##  4 trust    trust           22
##  5 commerce trust           21
##  6 ability  positive        20
##  7 continue anticipation    14
##  8 continue positive        14
##  9 continue trust           14
## 10 guidance positive        14
## # … with 90 more rows
…
Most frequent bi-grams with “growth”

#Create Bi-gram tibble. This creates a row for every bi-gram, or two-word phrase.
text_tidy_bi <- tibble_tidy %>% mutate(line_number = 1:nrow(.)) %>% group_by(author) %>% unnest_tokens(bigram, text, token = "ngrams", n = 2) %>% ungroup() %>% arrange(line_number)

#Seperate the bi-gram column into two column, one for each word. Filter for stop words.
text_tidy_bi_filtsep <- text_tidy_bi %>% separate(bigram, c("word1", "word2"), sep = " ") %>% filter(!word1 %in% stop_words$word & !word2 %in% stop_words$word) 

#Count most common bi-gram associated with groth
text_tidy_bi_filtsep %>% filter(word2 == "growth" | word2 == "growing" | word1 == "growing" | word1 == "growth" | word2 == "grow" | word1 == "grow") %>% count(word1, word2, sort = TRUE)

## # A tibble: 23 x 3
##    word1      word2       n
##    <chr>      <chr>   <int>
##  1 growth     rate        6
##  2 revenue    growth      3
##  3 fastest    growing     2
##  4 remarkable growth      2
##  5 25         growth      1
##  6 35         growth      1
##  7 amazing    growth      1
##  8 apples     growth      1
##  9 basis      growing     1
## 10 cloud      growth      1
## # … with 13 more rows
…
